com\dipesh\imageupload\controller\UserController.class
com\dipesh\imageupload\entity\User.class
com\dipesh\imageupload\repository\DatabaseFileRepository.class
com\dipesh\imageupload\controller\HomeController.class
com\dipesh\imageupload\AppStarter.class
com\dipesh\imageupload\entity\DatabaseFile.class
com\dipesh\imageupload\repository\UserRepository.class
